function data()
return {
	subMeshes = {
		{
			indices = {
				normal = {
					count = 6240,
					offset = 63840,
				},
				position = {
					count = 6240,
					offset = 51360,
				},
				tangent = {
					count = 6240,
					offset = 70080,
				},
				uv0 = {
					count = 6240,
					offset = 57600,
				},
			},
		},
	},
	vertexAttr = {
		normal = {
			count = 18720,
			numComp = 3,
			offset = 7680,
		},
		position = {
			count = 4608,
			numComp = 3,
			offset = 0,
		},
		tangent = {
			count = 24960,
			numComp = 4,
			offset = 26400,
		},
		uv0 = {
			count = 3072,
			numComp = 2,
			offset = 4608,
		},
	},
}
end
