function data()
return {
	subMeshes = {
		{
			indices = {
				normal = {
					count = 38724,
					offset = 389468,
				},
				position = {
					count = 38724,
					offset = 312020,
				},
				tangent = {
					count = 38724,
					offset = 428192,
				},
				uv0 = {
					count = 38724,
					offset = 350744,
				},
			},
		},
	},
	vertexAttr = {
		normal = {
			count = 116172,
			numComp = 3,
			offset = 40952,
		},
		position = {
			count = 22416,
			numComp = 3,
			offset = 0,
		},
		tangent = {
			count = 154896,
			numComp = 4,
			offset = 157124,
		},
		uv0 = {
			count = 18536,
			numComp = 2,
			offset = 22416,
		},
	},
}
end
