function data()
return {
	subMeshes = {
		{
			indices = {
				normal = {
					count = 5232,
					offset = 54592,
				},
				position = {
					count = 5232,
					offset = 44128,
				},
				tangent = {
					count = 5232,
					offset = 59824,
				},
				uv0 = {
					count = 5232,
					offset = 49360,
				},
			},
		},
	},
	vertexAttr = {
		normal = {
			count = 15696,
			numComp = 3,
			offset = 7504,
		},
		position = {
			count = 4560,
			numComp = 3,
			offset = 0,
		},
		tangent = {
			count = 20928,
			numComp = 4,
			offset = 23200,
		},
		uv0 = {
			count = 2944,
			numComp = 2,
			offset = 4560,
		},
	},
}
end
